INDEX VERSION 1.131+C:\Users\DELL\Documents\workspace-spring-tool-suite-4-4.17.1.RELEASE\StockMarketApplication\.metadata\.plugins\org.eclipse.jdt.core
2796600665.index
2040405050.index
2466009206.index
2562852285.index
124874057.index
335211976.index
3290134726.index
3590420726.index
3953437937.index
2701993274.index
1238337524.index
1677468028.index
3776401624.index
1253129468.index
1847817693.index
1939467511.index
242334849.index
961661211.index
4122256660.index
3090480680.index
4127761449.index
2465387004.index
2507455363.index
1759400051.index
3308856798.index
1518106645.index
557719233.index
2208362446.index
319103862.index
1512848421.index
3402030635.index
122861571.index
911468258.index
2366716130.index
1395375917.index
3723947677.index
3415904325.index
1323297312.index
3699375133.index
2182593188.index
11559212.index
781509772.index
1117518307.index
440667040.index
3028941164.index
742645186.index
4205809617.index
4290003469.index
282221064.index
2171165242.index
1771255075.index
141014207.index
676108741.index
2062078364.index
3489387361.index
1865797976.index
934380583.index
176233901.index
3941363606.index
3841389163.index
2452168805.index
1358178287.index
1919211457.index
1383442764.index
699367488.index
2369557666.index
2114324248.index
3849707476.index
4244011415.index
2650341736.index
1094461023.index
2568889118.index
3329480114.index
3207784620.index
299012272.index
1695156791.index
1678783471.index
3243394706.index
702662753.index
3304258629.index
2578992484.index
2860848169.index
2932788369.index
3325526059.index
540465676.index
317487398.index
4079583001.index
3700282790.index
931975216.index
2003741037.index
2083936106.index
43410902.index
3578515374.index
1853430059.index
3158383909.index
1386939833.index
592674091.index
1687961732.index
432478121.index
1521484680.index
3120624924.index
649152912.index
2548968207.index
76177574.index
3729282427.index
3226514453.index
1698322850.index
1372512418.index
3011128335.index
105884345.index
631839676.index
